{
    "options" : {
        "g_clipingPlaneNear": 3.0,
        "g_clipingPlaneFar": 100.0,
        "g_fov": 45.0,
        "g_depthBufferSize": 24,
        "g_stencilBufferSize": 8,
        "g_openglVersion": "3.3",
        "g_openglProfile": "core"
    },
    "binding" : {
        
    }
}